﻿
intimidated_from_faction_modifier = {
	modifier = {
		desc = "FACTION_REASON_INTIMIDATED"
		add = {
			if = {
				limit = {
					$POWER$ < $THRESHOLD$
				}
				add = -50 # Notable deterrent, but Intimidated vassals should still join Factions if they hate you enough.
			}
		}
		has_dread_level_towards = {
			target = $TARGET$
			level = 1
		}
	}
	modifier = {
		desc = "FACTION_REASON_TERRIFIED"
		add = {
			if = {
				limit = {
					$POWER$ < $THRESHOLD$
				}
				add = -1000 # Effectively a full blocker — Terrified vassals should never join Factions until they are powerful enough
			}
			else = {
				add = -100
			}
		}
		has_dread_level_towards = {
			target = $TARGET$
			level = 2
		}
	}
}

legalism_virtue_and_sin_modifier = {
	# Virtues
	modifier = {
		desc = "FACTION_REASON_LEGALISM_VIRTUES"
		add = {
			subtract = $SCORE_PER_TRAIT$
			multiply = $TARGET$.num_virtuous_traits
			if = {
				limit = {
					$TARGET$ = {
						has_trait = zealous
					}
				}
				multiply = 2
			}
			else_if = {
				limit = {
					$TARGET$ = {
						has_trait = cynical
					}
				}
				multiply = 0.5	
			}
		}
		$TARGET$ = {
			faith = {
				has_doctrine_parameter = legalism_reduced_faction_virtues
			}
		}	
	}

	# Sins
	modifier = {
		desc = "FACTION_REASON_LEGALISM_SINS"
		add = {
			add = $SCORE_PER_TRAIT$
			multiply = $TARGET$.num_sinful_traits
			if = {
				limit = {
					$TARGET$ = {
						has_trait = zealous
					}
				}
				multiply = 2
			}
			else_if = {
				limit = {
					$TARGET$ = {
						has_trait = cynical
					}
				}
				multiply = 0.5	
			}
		}
		$TARGET$ = {
			faith = {
				has_doctrine_parameter = legalism_increased_faction_sins
			}
		}
		
	}
}

pluralism_fundamentalism_modifier = {
	modifier = {
		desc = "FACTION_REASON_PLURALISM_ASTRAY"
		add = {
			value = $ASTRAY_BASE_VALUE$
			# Base opinion multiplier from pluralism
			if = {
				limit = {
					$TARGET$.faith = { has_doctrine = doctrine_pluralism_righteous }
				}
				multiply = hostility_multiplier_righteous
			}
			else_if = {
				limit = {
					$TARGET$.faith = { has_doctrine = doctrine_pluralism_pluralistic }
				}
				multiply = hostility_multiplier_pluralism
			}
			else_if = {
				limit = {
					$TARGET$.faith = { has_doctrine = doctrine_pluralism_fundamentalist }
				}
				multiply = hostility_multiplier_fundamentalist
			}

			#Additional opinion multiplier from adaptive
			if = {
				limit = {
					$TARGET$.faith = { has_doctrine_parameter = reduced_vassal_religion_discontent }
				}
				add = {
					value = $ASTRAY_BASE_VALUE$
					multiply = hostility_multiplier_reduction_adaptive
				}
			}
		}
		NOT = {
			has_active_diarch_for_factions_trigger = { TARGET = $TARGET$ }
		}
		$BASE_FAITH$ = {
			faith_hostility_level = {
				target = $TARGET$.faith
				value = faith_astray_level
			}
		}
		NOT = {
			root.culture = {
				has_cultural_parameter = doesnt_care_about_culture_faith_in_factions
			}
		}
	}
	modifier = {
		desc = "FACTION_REASON_PLURALISM_HOSTILE"
		add = {
			value = $HOSTILE_BASE_VALUE$
			if = {
				limit = {
					$TARGET$.faith = { has_doctrine = doctrine_pluralism_righteous }
				}
				multiply = hostility_multiplier_righteous
			}
			else_if = {
				limit = {
					$TARGET$.faith = { has_doctrine = doctrine_pluralism_pluralistic }
				}
				multiply = hostility_multiplier_pluralism
			}
			else_if = {
				limit = {
					$TARGET$.faith = { has_doctrine = doctrine_pluralism_fundamentalist }
				}
				multiply = hostility_multiplier_fundamentalist
			}

			#Additional opinion multiplier from adaptive
			if = {
				limit = {
					$TARGET$.faith = { has_doctrine_parameter = reduced_vassal_religion_discontent }
				}
				add = {
					value = $ASTRAY_BASE_VALUE$
					multiply = hostility_multiplier_reduction_adaptive
				}
			}
		}
		NOT = {
			has_active_diarch_for_factions_trigger = { TARGET = $TARGET$ }
		}
		$BASE_FAITH$ = {
			faith_hostility_level = {
				target = $TARGET$.faith
				value = faith_hostile_level
			}
		}
		NOT = {
			root.culture = {
				has_cultural_parameter = doesnt_care_about_culture_faith_in_factions
			}
		}
	}
	modifier = {
		desc = "FACTION_REASON_PLURALISM_EVIL"
		add = {
			value = $EVIL_BASE_VALUE$
			if = {
				limit = {
					$TARGET$.faith = { has_doctrine = doctrine_pluralism_righteous }
				}
				multiply = hostility_multiplier_righteous
			}
			else_if = {
				limit = {
					$TARGET$.faith = { has_doctrine = doctrine_pluralism_pluralistic }
				}
				multiply = hostility_multiplier_pluralism
			}
			else_if = {
				limit = {
					$TARGET$.faith = { has_doctrine = doctrine_pluralism_fundamentalist }
				}
				multiply = hostility_multiplier_fundamentalist
			}

			#Additional opinion multiplier from adaptive
			if = {
				limit = {
					$TARGET$.faith = { has_doctrine_parameter = reduced_vassal_religion_discontent }
				}
				add = {
					value = $ASTRAY_BASE_VALUE$
					multiply = hostility_multiplier_reduction_adaptive
				}
			}
		}
		NOT = {
			has_active_diarch_for_factions_trigger = { TARGET = $TARGET$ }
		}
		$BASE_FAITH$ = {
			faith_hostility_level = {
				target = $TARGET$.faith
				value = faith_evil_level
			}
		}
		NOT = {
			root.culture = {
				has_cultural_parameter = doesnt_care_about_culture_faith_in_factions
			}
		}
	}	
}

pluralism_fundamentalism_dual_modifier = {
	modifier = {
		desc = "FACTION_REASON_PLURALISM_ASTRAY"
		add = {
			value = $ASTRAY_BASE_VALUE$
			# Base opinion multiplier from pluralism
			if = {
				limit = {
					OR = {
						$TARGET$.faith = { has_doctrine = doctrine_pluralism_righteous }
						$TARGET$.diarch.faith = { has_doctrine = doctrine_pluralism_righteous }
					}
				}
				multiply = hostility_multiplier_righteous
			}
			else_if = {
				limit = {
					OR = {
						$TARGET$.faith = { has_doctrine = doctrine_pluralism_pluralistic }
						$TARGET$.diarch.faith = { has_doctrine = doctrine_pluralism_pluralistic }
					}
				}
				multiply = hostility_multiplier_pluralism
			}
			else_if = {
				limit = {
					OR = {
						$TARGET$.faith = { has_doctrine = doctrine_pluralism_fundamentalist }
						$TARGET$.diarch.faith = { has_doctrine = doctrine_pluralism_fundamentalist }
					}
				}
				multiply = hostility_multiplier_fundamentalist
			}

			#Additional opinion multiplier from adaptive
			if = {
				limit = {
					OR = {
						$TARGET$.faith = { has_doctrine_parameter = reduced_vassal_religion_discontent }
						$TARGET$.diarch.faith = { has_doctrine_parameter = reduced_vassal_religion_discontent }
					}
				}
				add = {
					value = $ASTRAY_BASE_VALUE$
					multiply = hostility_multiplier_reduction_adaptive
				}
			}
		}
		has_active_diarch_for_factions_trigger = { TARGET = $TARGET$ }
		OR = {
			$BASE_FAITH$ = {
				faith_hostility_level = {
					target = $TARGET$.faith
					value = faith_astray_level
				}
			}
			$BASE_FAITH$ = {
				faith_hostility_level = {
					target = $TARGET$.diarch.faith
					value = faith_astray_level
				}
			}
		}
		NOT = {
			root.culture = {
				has_cultural_parameter = doesnt_care_about_culture_faith_in_factions
			}
		}
	}
	modifier = {
		desc = "FACTION_REASON_PLURALISM_HOSTILE"
		add = {
			value = $HOSTILE_BASE_VALUE$
			if = {
				limit = {
					OR = {
						$TARGET$.faith = { has_doctrine = doctrine_pluralism_righteous }
						$TARGET$.diarch.faith = { has_doctrine = doctrine_pluralism_righteous }
					}
				}
				multiply = hostility_multiplier_righteous
			}
			else_if = {
				limit = {
					OR = {
						$TARGET$.faith = { has_doctrine = doctrine_pluralism_pluralistic }
						$TARGET$.diarch.faith = { has_doctrine = doctrine_pluralism_pluralistic }
					}
				}
				multiply = hostility_multiplier_pluralism
			}
			else_if = {
				limit = {
					OR = {
						$TARGET$.faith = { has_doctrine = doctrine_pluralism_fundamentalist }
						$TARGET$.diarch.faith = { has_doctrine = doctrine_pluralism_fundamentalist }
					}
				}
				multiply = hostility_multiplier_fundamentalist
			}

			#Additional opinion multiplier from adaptive
			if = {
				limit = {
					OR = {
						$TARGET$.faith = { has_doctrine_parameter = reduced_vassal_religion_discontent }
						$TARGET$.diarch.faith = { has_doctrine_parameter = reduced_vassal_religion_discontent }
					}
				}
				add = {
					value = $ASTRAY_BASE_VALUE$
					multiply = hostility_multiplier_reduction_adaptive
				}
			}
		}
		has_active_diarch_for_factions_trigger = { TARGET = $TARGET$ }
		OR = {
			$BASE_FAITH$ = {
				faith_hostility_level = {
					target = $TARGET$.faith
					value = faith_hostile_level
				}
			}
			$BASE_FAITH$ = {
				faith_hostility_level = {
					target = $TARGET$.diarch.faith
					value = faith_hostile_level
				}
			}
		}
		NOT = {
			root.culture = {
				has_cultural_parameter = doesnt_care_about_culture_faith_in_factions
			}
		}
	}
	modifier = {
		desc = "FACTION_REASON_PLURALISM_EVIL"
		add = {
			value = $EVIL_BASE_VALUE$
			if = {
				limit = {
					OR = {
						$TARGET$.faith = { has_doctrine = doctrine_pluralism_righteous }
						$TARGET$.diarch.faith = { has_doctrine = doctrine_pluralism_righteous }
					}
				}
				multiply = hostility_multiplier_righteous
			}
			else_if = {
				limit = {
					OR = {
						$TARGET$.faith = { has_doctrine = doctrine_pluralism_pluralistic }
						$TARGET$.diarch.faith = { has_doctrine = doctrine_pluralism_pluralistic }
					}
				}
				multiply = hostility_multiplier_pluralism
			}
			else_if = {
				limit = {
					OR = {
						$TARGET$.faith = { has_doctrine = doctrine_pluralism_fundamentalist }
						$TARGET$.diarch.faith = { has_doctrine = doctrine_pluralism_fundamentalist }
					}
				}
				multiply = hostility_multiplier_fundamentalist
			}

			#Additional opinion multiplier from adaptive
			if = {
				limit = {
					OR = {
						$TARGET$.faith = { has_doctrine_parameter = reduced_vassal_religion_discontent }
						$TARGET$.diarch.faith = { has_doctrine_parameter = reduced_vassal_religion_discontent }
					}
				}
				add = {
					value = $ASTRAY_BASE_VALUE$
					multiply = hostility_multiplier_reduction_adaptive
				}
			}
		}
		has_active_diarch_for_factions_trigger = { TARGET = $TARGET$ }
		OR = {
			$BASE_FAITH$ = {
				faith_hostility_level = {
					target = $TARGET$.faith
					value = faith_evil_level
				}
			}
			$BASE_FAITH$ = {
				faith_hostility_level = {
					target = $TARGET$.diarch.faith
					value = faith_evil_level
				}
			}
		}
		NOT = {
			root.culture = {
				has_cultural_parameter = doesnt_care_about_culture_faith_in_factions
			}
		}
	}	
}

liege_debt_modifier = {
	modifier = {
		desc = "FACTION_REASON_LIEGE_DEBT"
		$TARGET$ = { gold <= 0 }
		add = {
			value = 0
			if = {
				limit = { $TARGET$ = { debt_level = 0 }}
				add = $SCORE_PER_DEBT_LEVEL$
				multiply = 1
			}
			else_if = {
				limit = { $TARGET$ = { debt_level = 1 }}
				add = $SCORE_PER_DEBT_LEVEL$
				multiply = 2
			}
			else_if = {
				limit = { $TARGET$ = { debt_level = 2 }}
				add = $SCORE_PER_DEBT_LEVEL$
				multiply = 3
			}
			else_if = {
				limit = { $TARGET$ = { debt_level = 3 }}
				add = $SCORE_PER_DEBT_LEVEL$
				multiply = 4
			}
			else_if = {
				limit = { $TARGET$ = { debt_level = 4 }}
				add = $SCORE_PER_DEBT_LEVEL$
				multiply = 5
			}
			else_if = {
				limit = { $TARGET$ = { debt_level = 5 }}
				add = $SCORE_PER_DEBT_LEVEL$
				multiply = 6
			}
			else_if = {
				limit = { $TARGET$ = { debt_level = 6 }}
				add = $SCORE_PER_DEBT_LEVEL$
				multiply = 7
			}
			else_if = {
				limit = { $TARGET$ = { debt_level = 7 }}
				add = $SCORE_PER_DEBT_LEVEL$
				multiply = 8
			}
			else_if = {
				limit = { $TARGET$ = { debt_level = 8 }}
				add = $SCORE_PER_DEBT_LEVEL$
				multiply = 9
			}
			else_if = {
				limit = { $TARGET$ = { debt_level = 9 }}
				add = $SCORE_PER_DEBT_LEVEL$
				multiply = 10
			}
		}
	}
}

dynamic_power_threshold_scripted_modifier = {
	#Lower the threshold depending on the state of other factions
	#Check if the factions types passed in parameter are:
	#Is at war: -20
	#Exists and is above its power theshold: -10
	#Exists and is below its power theshold: -5
	modifier = {
		add = {
			value = 0
			
			if = {
				limit = {
					faction_target = {
						any_targeting_faction = {
							faction_is_type = $FACTION_TYPE1$
							faction_is_at_war = yes 
						}
					}
				}
				add = -20
			}
			else_if = {
				limit = {
					faction_target = {
						any_targeting_faction = {
							faction_is_type = $FACTION_TYPE1$
							faction_is_at_war = no
							faction_power >= faction_power_threshold
						}
					}
				}
				add = -10
			}
			else_if = {
				limit = {
					faction_target = {
						any_targeting_faction = {
							faction_is_type = $FACTION_TYPE1$
							faction_is_at_war = no
						}
					}
				}
				add = -5
			}

			if = {
				limit = {
					faction_target = {
						any_targeting_faction = {
							faction_is_type = $FACTION_TYPE2$
							faction_is_at_war = yes 
						}
					}
				}
				add = -20
			}
			else_if = {
				limit = {
					faction_target = {
						any_targeting_faction = {
							faction_is_type = $FACTION_TYPE2$
							faction_is_at_war = no
							faction_power >= faction_power_threshold
						}
					}
				}
				add = -10
			}
			else_if = {
				limit = {
					faction_target = {
						any_targeting_faction = {
							faction_is_type = $FACTION_TYPE2$
							faction_is_at_war = no
						}
					}
				}
				add = -5
			}

			if = {
				limit = {
					faction_target = {
						any_targeting_faction = {
							faction_is_type = $FACTION_TYPE3$
							faction_is_at_war = yes 
						}
					}
				}
				add = -20
			}
			else_if = {
				limit = {
					faction_target = {
						any_targeting_faction = {
							faction_is_type = $FACTION_TYPE3$
							faction_is_at_war = no
							faction_power >= faction_power_threshold
						}
					}
				}
				add = -10
			}
			else_if = {
				limit = {
					faction_target = {
						any_targeting_faction = {
							faction_is_type = $FACTION_TYPE3$
							faction_is_at_war = no
						}
					}
				}
				add = -5
			}
			#security to never reach a power threshold equals to 0
			min = -70
		}
		desc = "FACTION_POWER_INTERNAL_ISSUES"
	}
}

common_discontent_progress_modifier = {
	# We use a modifier as our base progress in order to take advantage of script values.
	modifier = {
		add = base_discontent_progress
		desc = "BASE_COLON"
	}

	# The higher above the power threshold the faction is, the faster discontent increases.
	modifier = {
		faction_power > faction_power_threshold
		add = faction_discontent_for_extra_power
		desc = "FACTION_DISCONTENT_POWER_ABOVE_THRESHOLD"
	}

	# Discontent slowly decays if power is under the threshold.
	modifier = {
		faction_power < faction_power_threshold
		add = {
			add = base_discontent_progress
			multiply = -2
		}
		desc = "FACTION_DISCONTENT_POWER_BELOW_THRESHOLD"
	}
}

common_create_faction_blockers = {
	# Refuses to make if there was a recent independence faction revolt.
	modifier = {
		add = -1000
		$FACTION_TARGET$ = {
			has_character_flag = $FLAG$
		}
	}

	# Do not join a new faction if I am already at war.
	modifier = {
		add = -1000
		is_at_war = yes
	}

	# Block characters from joining if they have a high opinion of the target
	modifier = {
		add = -1000
		save_temporary_opinion_value_as = { name = target_opinion target = $FACTION_TARGET$ }		
		scope:target_opinion >= 80
	}
}

common_join_faction_blockers = {
	# Do not join a new faction if I am already at war.
	modifier = {
		add = -1000
		AND = {
			is_at_war = yes
			trigger_if = {
				limit = {
					exists = joined_faction
				}
				NOT = { joined_faction = scope:faction }
			}	
		}
	}

	modifier = {
		add = -1000
		save_temporary_opinion_value_as = { name = target_opinion target = $FACTION_TARGET$ }
		scope:target_opinion >= 80
	}

	
}

common_faction_modifiers = {
	# +/- 40 join weight at -/+100 opinion
	opinion_modifier = {
		who = root
		opinion_target = $FACTION_TARGET$ 
		multiplier = $OPINION_MULTIPLIER$
		max = $MAX_OPINION$
	}

	# for each character.religion != factionTarget.religion add X join-score
	pluralism_fundamentalism_modifier = {
		ASTRAY_BASE_VALUE = 25
		HOSTILE_BASE_VALUE = 50
		EVIL_BASE_VALUE = 100
		BASE_FAITH = faith
		TARGET = $FACTION_TARGET$
	}

	# +25 join chance per sin, -25 join chance per virtue
	legalism_virtue_and_sin_modifier = {
		TARGET = $FACTION_TARGET$
		SCORE_PER_TRAIT = 25
	}

	# -100 join chance from intimidation, -1000 join chance from terrified. This modifier doesn't apply if a faction is above the power threshold
	intimidated_from_faction_modifier = {
		TARGET = $FACTION_TARGET$
		POWER =  $POWER$
		THRESHOLD = $THRESHOLD$
	}
	
	# Unity - House members are less likely to join factions against each other with high levels of unity
	modifier = { # Friendly unity level
		desc = "FACTION_REASON_unity_significantly_less_likely_claimant_factions"
		add = -20
		exists = root.house
		exists = $FACTION_TARGET$.house
		house = $FACTION_TARGET$.house
		house = {
			has_house_unity_parameter = unity_less_likely_factions
		}
	}
	modifier = { # Harmonious unity level
		desc = "FACTION_REASON_unity_significantly_less_likely_claimant_factions"
		add = -40
		exists = root.house
		exists = $FACTION_TARGET$.house
		house = $FACTION_TARGET$.house
		house = {
			has_house_unity_parameter = unity_significantly_less_likely_factions
		}
	}

	# Debt: +10 to +60 join chance depending on how far in debt the top liege is
	liege_debt_modifier = {
		TARGET = $FACTION_TARGET$
		SCORE_PER_DEBT_LEVEL = 10
	}

	# Difficulty Settings
	modifier = { # Easy
		desc = "FACTION_REASON_DIFFICULTY_EASY"
		add = -50
		has_game_rule = easy_difficulty
		$FACTION_TARGET$ = {
			is_ai = no
		}
	}
	modifier = { # Very Easy
		desc = "FACTION_REASON_DIFFICULTY_VERY_EASY"
		add = -150
		has_game_rule = very_easy_difficulty
		$FACTION_TARGET$ = {
			is_ai = no
		}
	}

	# Realm Stability Settings
	modifier = {
		desc = "FACTION_REASON_GAME_RULE_REALM_STABILITY_LESSER"
		add = 50
		has_game_rule = lesser_realm_stability
	}
	modifier = {
		desc = "FACTION_REASON_GAME_RULE_REALM_STABILITY_HIGHER"
		add = -50
		has_game_rule = higher_realm_stability
	}
	modifier = {
		desc = "FACTION_REASON_GAME_RULE_REALM_STABILITY_EXTREME"
		add = -100
		has_game_rule = extreme_realm_stability
	}

	#safe guard to avoid Factions being created when the game starts
	modifier = {
		add = -10000
		years_from_game_start < 1
		$FACTION_TARGET$.primary_title.tier = tier_duchy
		desc = "FACTION_REASON_GAME_START_DUCHY"
	}

	modifier = {
		add = -10000
		years_from_game_start < 5
		$FACTION_TARGET$.primary_title.tier = tier_kingdom

		desc = "FACTION_REASON_GAME_START_KINGDOM"
	}

	modifier = {
		add = -10000
		years_from_game_start < 10
		$FACTION_TARGET$.primary_title.tier = tier_empire

		desc = "FACTION_REASON_GAME_START_EMPIRE"
	}

	modifier = { # Hostages
		desc = "FACTION_REASON_HOSTAGE"
		add = -50
		any_home_court_hostage = { warden = $FACTION_TARGET$ }
	}

	modifier = {
		desc = "FACTION_REASON_DETRACTORS_STICK_TOGETHER"
		add = -50
		has_trait = fp3_struggle_detractor
		OR = {
			culture = { has_same_culture_heritage = $FACTION_TARGET$.culture }
			faith = $FACTION_TARGET$.faith
		}
		$FACTION_TARGET$ = {
			has_trait = fp3_struggle_detractor
		}
	}

	#FP3 Strengthern Caliphate
	modifier = {
		desc = "FACTION_REASON_FP3_SUPPORTER"
		add = -50
		global_var:fp3_struggle_ending ?= flag:fp3_struggle_strengthen_caliphate_ending
		has_trait = fp3_struggle_supporter
		$FACTION_TARGET$ = { has_title = title:d_sunni }
	}
}

independence_faction_create_blockers = {
	# If a suitable Populist Faction already exists, prefer to side with it
	modifier = {
		add = -1000
		$FACTION_TARGET$ = {
			any_targeting_faction = {
  				faction_is_type = populist_faction
  				var:faction_faith = root.faith
  				var:faction_culture = root.culture
			}
	  	}
	}
	modifier = {
		add = -1000
		$FACTION_TARGET$ = {
			any_targeting_faction = {
  				faction_is_type = populist_faction
  				var:faction_faith = root.faith
  				var:faction_culture = { has_same_culture_heritage = root.culture }
			}
	  	}
	}
}

independence_faction_modifiers = {
	modifier = { # Electors are less likely to join independence factions, if their faith is astray or below
		desc = "FACTION_REASON_ELECTOR"

		add = {
			value = -150
			if = {	#Anbennar - made this eoa
				limit = {
					exists = title:e_anbennar
					$FACTION_TARGET$ = {
						has_primary_title = title:e_anbennar
					}
				}
				add = -150
			}
		}
		$FACTION_TARGET$.primary_title = {
			has_order_of_succession = election
			any_elector = {
				this = root	
			}
		}
		faith = {
			faith_hostility_level = {
				target = $FACTION_TARGET$.faith
				value <= faith_astray_level
			}
		}
	}

	# Liege is not my Rightful Liege or a consequent par of my Realm is outside of their De Jure
	modifier = {
		desc = "FACTION_REASON_RIGHTFUL"
		add = {
			value = 125
			# Larger realms are inherently more rebellious.
			add = {
				value = sub_realm_size
				multiply = 2
			}
		}
		OR = {
	 		NOT = {
				is_rightful_liege_of_trigger = {
					VASSAL = root
					LIEGE = $FACTION_TARGET$
				}
			}
			any_sub_realm_county = {
				percent <= 0.5
				save_temporary_scope_as = current_county
				$FACTION_TARGET$.primary_title = {
					any_in_de_jure_hierarchy = {
						this = scope:current_county
					}
				}
			}
		}
	}

	# Kingdoms gain an additional boost to independence, as they don't like being under the thumb of others.
	modifier = {
		desc = "FACTION_REASON_KING"
		add = { # High-grandeur Kings will want independence even more
			value =	50
			if = {
				limit = {
					has_royal_court = yes
					$FACTION_TARGET$ = {
						has_royal_court = yes
					}
					court_grandeur_current_level > $FACTION_TARGET$.court_grandeur_current_level
				}
				add = {
					add = court_grandeur_current_level
					subtract = $FACTION_TARGET$.court_grandeur_current_level
					multiply = 15
				}
			}
		}
		highest_held_title_tier = tier_kingdom
	}

	# Lowers independence wishes from Counts.
	modifier = {
		desc = "FACTION_REASON_COUNT"
		add = -25
		highest_held_title_tier = tier_county
	}

	# Toe the Line Perk
	modifier = {
		desc = "FACTION_REASON_PERK_TOE_THE_LINE"
		add = -50
		$FACTION_TARGET$ = {
			has_perk = toe_the_line_perk
		}
	}

	# Stem Duchies innovation
	modifier = {
		desc = "FACTION_REASON_INNOVATION_STEM_DUCHIES"
		add = -25
		$FACTION_TARGET$ = { culture = { has_innovation = innovation_stem_duchies }	}
		culture = { has_same_culture_heritage = $FACTION_TARGET$.culture }
	}

	# Characters are less likely to join if cultural acceptance is high
	modifier = {
		desc = "FACTION_REASON_CULTURE_ACCEPTANCE"
		culture = {
			NOR = {
				this = $FACTION_TARGET$.culture
				cultural_acceptance = { target = $FACTION_TARGET$.culture value >= 90 } # Essentially the same culture
				has_cultural_parameter = doesnt_care_about_culture_faith_in_factions
			}
		}
		add = {
			value = 20
			if = {
				limit = {
					culture = {
						cultural_acceptance = { target = $FACTION_TARGET$.culture value <= 20 }
					}
				}
				add = 20
			}
			if = {
				limit = {
					culture = {
						cultural_acceptance = { target = $FACTION_TARGET$.culture value <= 35 }
					}
				}
				add = 15
			}
			if = {
				limit = {
					culture = {
						cultural_acceptance = { target = $FACTION_TARGET$.culture value <= 50 }
					}
				}
				add = 10
			}
			if = {
				limit = {
					culture = {
						cultural_acceptance = { target = $FACTION_TARGET$.culture value <= 70 }
					}
				}
				add = 5
			}
			if = {
				limit = {
					culture = {
						cultural_acceptance = { target = $FACTION_TARGET$.culture value <= 80 }
					}
				}
				add = 5
			}
			if = { # The liege knowing your language cuts this penalty in half
				limit = {
					$FACTION_TARGET$ = {
						knows_language_of_culture = prev.culture
					}
				}
				multiply = 0.5
			}
		}
	}

	# If in struggle, rather go for Dissolution faction
	modifier = {
		desc = "FACTION_REASON_PREFER_DISSOLUTION_FACTION"
		add = {
			value = 0
			# Some phases give a low chance...
			if = {
				limit = {
					$FACTION_TARGET$ = {
						any_character_struggle = {
							is_struggle_type = iberian_struggle
							involvement = involved
							OR = {
								is_struggle_phase = struggle_iberia_phase_hostility
								is_struggle_phase = struggle_iberia_phase_opportunity
							}
						}
					}
				}
				add = -100
			}
		}
		$FACTION_TARGET$ = {
			any_character_struggle = {
				is_struggle_type = iberian_struggle
				involvement = involved
			}
		}
		OR = {
			is_powerful_vassal_of = $FACTION_TARGET$
			$FACTION_TARGET$ = {
				any_targeting_faction = {
					faction_is_type = nation_fracturing_faction
				}
			}
		}
	}
	
	modifier = { # New vassals do not want to join independence factions
		desc = "FACTION_REASON_NEW_VASSAL"
		add = -1000
		has_opinion_modifier = {
			modifier = became_vassal
			target = $FACTION_TARGET$
		}
	}
}

nation_fracturing_faction_modifiers = {

	# Short reign increase the change of NF
	modifier = {
		desc = "FACTION_REASON_SHORT_REIGN"
		add = {
			value = 0
			if =  {
				limit =  {
					$FACTION_TARGET$ = {
						primary_title = {
							title_held_years <= 1
						}
					}
				}
				add = 20
			}
			if =  {
				limit =  {
					$FACTION_TARGET$ = {
						primary_title = {
							title_held_years <= 5
						}
					}
				}
				add = 10
			}
			if =  {
				limit =  {
					$FACTION_TARGET$ = {
						primary_title = {
							title_held_years <= 10
						}
					}
				}
				add = 10
			}
		}
	}

	# Lower the score if there are claimants of my culture
	modifier = {
		desc = "FACTION_REASON_CLAIMANTS_OF_MY_CULTURE"
		add = -200
		$FACTION_TARGET$ = {
			primary_title = {
				any_claimant = {
					count > 0
					culture = root.culture
				}
			}
		}
	}

	# Characters are less likely to join if cultural acceptance is high
	modifier = {
		desc = "FACTION_REASON_CULTURAL_ACCEPTANCE"
		culture = {
			NOR = {
				this = $FACTION_TARGET$.culture
				cultural_acceptance = { target = $FACTION_TARGET$.culture value >= 90 } # Essentially the same culture
				has_cultural_parameter = doesnt_care_about_culture_faith_in_factions
			}
		}
		add = {
			value = 15
			if = {
				limit = {
					culture = {
						cultural_acceptance = { target = $FACTION_TARGET$.culture value <= 20 }
					}
				}
				add = 20
			}
			if = {
				limit = {
					culture = {
						cultural_acceptance = { target = $FACTION_TARGET$.culture value <= 35 }
					}
				}
				add = 15
			}
			if = {
				limit = {
					culture = {
						cultural_acceptance = { target = $FACTION_TARGET$.culture value <= 50 }
					}
				}
				add = 10
			}
			if = {
				limit = {
					culture = {
						cultural_acceptance = { target = $FACTION_TARGET$.culture value <= 70 }
					}
				}
				add = 5
			}
			if = {
				limit = {
					culture = {
						cultural_acceptance = { target = $FACTION_TARGET$.culture value <= 80 }
					}
				}
				add = 5
			}
		}
	}

	# More likely to happen if the target don't control the entirety of the de jure area of any of their title of the same rank as their primary title
	modifier = {
		desc = "FACTION_REASON_TARGET_NOT_FULL_CONTROL"
		add = {
			value = 0
			$FACTION_TARGET$ = {
				every_held_title = {
					limit = {
						this.tier = prev.primary_title.tier
						NOT = { $FACTION_TARGET$ = { completely_controls = prev } }
					}
					add = {
						if = {
							limit = { tier = tier_empire }
							add = 50
						}
						else_if = {
							limit = { tier = tier_kingdom }
							add = 20
						}
						else_if = {
							limit = { tier = tier_duchy }
							add = 15
						}
						else_if = {
							limit = { tier = tier_county }
							add = 10
						}
						#bigger penalty for the primary_title
						if = {
							limit = { this = $FACTION_TARGET$.primary_title }
							add = 50
						}
					}
				}
			}
		}
	}

	# more likely to happen if they lost wars or title recently
	modifier = {
		desc = "FACTION_REASON_RECENT_LOST_WAR"
		add = {
			value = 0
			if = {
				limit = { $FACTION_TARGET$ = { has_variable =  recently_lost_wars } }
				add = $FACTION_TARGET$.var:recently_lost_wars
				multiply = 30
			}
		}
	}

	# more likely to happen to Tribal and Clans
	modifier = {
		desc = "FACTION_REASON_TRIBAL_CLAN"
		add = {
			value = 0
			if = {
				limit = { $FACTION_TARGET$ = { government_has_flag = government_is_tribal } }
				add = 25
			}
			else_if = {
				limit = { $FACTION_TARGET$ = { government_has_flag = government_is_clan } }
				# Increase for each powerful vassal you are not allied with
				add = {
					value = 0
					$FACTION_TARGET$ = {
						every_vassal = {
							limit = {
								is_powerful_vassal_of = $FACTION_TARGET$
								NOT = { is_allied_to = $FACTION_TARGET$ }
							}
							add = 10
						}
					}
				}
			}
		}
	}

	# motivated if the target is involved in various struggle phases.
	modifier = {
		add = {
			value = 0
			# Some phases give a low chance...
			if = {
				limit = {
					$FACTION_TARGET$ = {
						any_character_struggle = {
							is_struggle_type = iberian_struggle
							involvement = involved
							is_struggle_phase = struggle_iberia_phase_hostility
						}
					}
				}
				add = 50
			}
			# ... & some phases give a high chance.
			else_if = {
				limit = {
					$FACTION_TARGET$ = {
						any_character_struggle = {
							is_struggle_type = iberian_struggle
							involvement = involved
							is_struggle_phase = struggle_iberia_phase_opportunity
						}
					}
				}
				add = 100 # High chance in opportunity
			}
		}
		$FACTION_TARGET$ = {
			any_character_struggle = {
				is_struggle_type = iberian_struggle
				involvement = involved
			}
		}
	}

	# Less likely for elective title
	modifier = {
		desc = "FACTION_REASON_ELECTIVE_PRIMARY"
		add = -100
	 	$FACTION_TARGET$.primary_title = {
			has_order_of_succession = election
		}
	}

	# Less likely for vassals with Byzantine Traditions
	# modifier = {
		# desc = "FACTION_REASON_BYZANTINE"
		# add = -500
	 	# culture = {
			# has_cultural_parameter = byzantine_faction_differences
		# }
	 	# $FACTION_TARGET$ = {
			# has_title = title:e_byzantium
		# }
	# }

	# modifier = {
		# desc = "FACTION_REASON_BYZANTINE_RELIGION"
		# add = -200
		# religion = liege.religion
	 	# $FACTION_TARGET$ = {
			# has_title = title:e_byzantium
		# }
	# }
	
	modifier = { # New vassals do not want to join independence factions
		desc = "FACTION_REASON_NEW_VASSAL"
		add = -1000
		has_opinion_modifier = {
			modifier = became_vassal
			target = $FACTION_TARGET$
		}
	}
}

nation_fracturing_faction_blockers = {
	# If you have a claim on the title, you should create a claimant faction instead
	modifier = {
		add = -1000
		OR = {
			has_weak_claim_on = $FACTION_TARGET$.primary_title
			has_claim_on = $FACTION_TARGET$.primary_title
		}
	}

	# We don't want the AI to create it for a title below Kingdom
	modifier = {
		add = -1000
		$FACTION_TARGET$.primary_title.tier < tier_kingdom
	}

	## Game ruler specifics
	
	# Anbennar: we don't have this title
	# Keep it while the Calip is alive
	# modifier = {
		# add = -1000
		# $FACTION_TARGET$ = {
			# this = character:73683
			# any_held_title = {
				# this = title:k_andalusia
			# }
		# }
		# has_game_rule = dissolution_after_caliph_death
	# }

	# Historical time blocker
	# modifier = {
		# add = -1000
		# current_date < 1020.1.1
		# $FACTION_TARGET$ = {
			# any_held_title = {
				# this = title:k_andalusia
			# }
		# }
		# has_game_rule = dissolution_historical_date
	# }
}

liberty_faction_modifiers = {
	modifier = {
		desc = "FACTION_REASON_CROWN_AUTHORITY_1"
		add = 10 # AI won't join at +10 Opinion
		$FACTION_TARGET$ = {
			has_realm_law = crown_authority_1
		}
	}
	modifier = {
		desc = "FACTION_REASON_CROWN_AUTHORITY_2"
		add = 20 # AI won't join at +20 Opinion
		$FACTION_TARGET$ = {
			has_realm_law = crown_authority_2
		}
	}
	modifier = {
		desc = "FACTION_REASON_CROWN_AUTHORITY_3"
		add = 40 # AI won't join at +40 Opinion
		$FACTION_TARGET$ = {
			has_realm_law = crown_authority_3
		}
	}

	# Legacy
	modifier = {
		desc = "FACTION_REASON_GLORY_LEGACY_4"
		add = -20
		$FACTION_TARGET$ = {
			exists = dynasty
			dynasty = {
				has_dynasty_perk = glory_legacy_4
			}
		}
	}
}

claimant_faction_blockers = {
	# Do not create if I put my current liege on the throne in a different claimant faction.
	modifier = {
		add = -5000
		has_opinion_modifier = {
			modifier = claimant_faction_member_opinion
			target = $FACTION_TARGET$
		}
	}

	# Do not start factions for certain claimants
	modifier = {
		add = -1000
		$FACTION_CLAIMANT$ = {
			OR = {
				has_trait = incapable
				government_has_flag = government_is_theocracy
			}
		}
	}
}

claimant_faction_modifiers = {
	# Gender concerns (general)
	modifier = {
		desc = "FACTION_REASON_CLAIMANT_GENDER"
		add = -50
		NOT = { $FACTION_CLAIMANT$ = root }
		OR = {
			AND = {
				faith = { has_doctrine = doctrine_gender_female_dominated }
				$FACTION_CLAIMANT$ = {
					is_male = yes
				}
			}
			AND = {
				faith = { has_doctrine = doctrine_gender_male_dominated }
				$FACTION_CLAIMANT$ = {
					is_female = yes
				}
			}
		}
	}

	# Gender concerns (target of wrong gender)
	modifier = {
		desc = "FACTION_REASON_CLAIMANT_GENDER_VS_TARGET"
		add = 25
		OR = {
			AND = {
				faith = { has_doctrine = doctrine_gender_female_dominated }
				$FACTION_TARGET$ = { is_male = yes }
				$FACTION_CLAIMANT$ = {
					is_female = yes
					faith = root.faith
				}
			}
			AND = {
				faith = { has_doctrine = doctrine_gender_male_dominated }
				$FACTION_TARGET$ = { is_female = yes }
				$FACTION_CLAIMANT$ = {
					is_male = yes
					faith = root.faith
				}
			}
		}
	}

	# Powerful vassals will be even more motivated to create claimant if unhappy with liege, if they like the claimant more than their liege
	opinion_modifier = {
		desc = "FACTION_REASON_POWERFUL_LIKES_CLAIMANT_MORE"
		trigger = {
			is_powerful_vassal_of = $FACTION_TARGET$
			save_temporary_opinion_value_as = { name = opinion_of_current_liege target = $FACTION_TARGET$ }
			opinion = { target = $FACTION_CLAIMANT$ value > scope:opinion_of_current_liege }
		}
		who = root
		opinion_target = $FACTION_TARGET$
		multiplier = -1.5
		min = 0
	}

	# They do not like the claimant more than their liege, unless its a claimant of their own culture
	modifier = {
		desc = "FACTION_REASON_LIKES_LIEGE_UNLESS_CULTURE"
		add = -50
		NOT = {	$FACTION_CLAIMANT$ = root }
		NAND = {
			culture = $FACTION_CLAIMANT$.culture
			NOT = {
				culture = $FACTION_TARGET$.culture
			}
		}
		save_temporary_opinion_value_as = { name = opinion_of_current_liege target = $FACTION_TARGET$ }
		opinion = { target = $FACTION_CLAIMANT$ value < scope:opinion_of_current_liege }
	}
	
	modifier = { # If you like the Claimant better than your liege, increase the score
		desc = "FACTION_REASON_LIKE_CLAIMANT_MORE_THAN_LIEGE"
		NOT = {	$FACTION_CLAIMANT$ = root }
		save_temporary_opinion_value_as = { name = opinion_of_current_liege target = $FACTION_TARGET$ }
		save_temporary_opinion_value_as = { name = opinion_of_claimant target = $FACTION_CLAIMANT$ }
		scope:opinion_of_claimant > liege_opinion_value
		scope:opinion_of_claimant > 0
		add = {
			value = scope:opinion_of_claimant
			multiply = 1.5
			subtract = scope:opinion_of_current_liege
		}
	}
	
	opinion_modifier = { # Reduce likelihood of joining if you have positive opinion of your liege
		desc = "FACTION_REASON_LIKES_LIEGE"
		who = root
		opinion_target = $FACTION_TARGET$
		multiplier = -0.5
		max = 0
	}
	
	modifier = {
		desc = "FACTION_REASON_CLAIMANT_TOO_OLD"
		add = { # Claimant is too old
			value = $FACTION_CLAIMANT$.age
			subtract = 45
			multiply = -2
		}
		AND = {
			NOT = {	$FACTION_CLAIMANT$ = root }
			$FACTION_CLAIMANT$.age > 45
		}
	}
	modifier = { # Claimant is too young
		desc = "FACTION_REASON_CLAIMANT_TOO_YOUNG"
		add = -25
		$FACTION_CLAIMANT$ = { is_adult = no }
	}
	modifier = {
		desc = "FACTION_REASON_CLAIMAINT_DYING"
		add = { # Claimant is dying
			value = 1.5
			subtract = $FACTION_CLAIMANT$.health
			multiply = -20
		}
		AND = {
			NOT = {	$FACTION_CLAIMANT$ = root }
			$FACTION_CLAIMANT$.health < 1.5
		}
	}
	modifier = {
		desc = "FACTION_REASON_CLAIMANT_RARE_PRODUCE_HEIR"
		add = -50
		AND = { # Claimant does not have children and is unlikely to have any.
			$FACTION_CLAIMANT$.fertility <= 0.1
			NOT = {	$FACTION_CLAIMANT$ = root }
			NOT = {
				$FACTION_CLAIMANT$ = {
					any_child = {
						count >= 1
					}
				}
			}
		}
	}

	# Infirmity of claimant
	modifier = {
		desc = "FACTION_REASON_INFIRM"
		add = -50
		$FACTION_CLAIMANT$ = {
			has_trait = infirm
		}
	}

	# I am the claimant!
	modifier = {
		desc = "FACTION_REASON_MEMBER_IS_CLAIMANT"
		add = {
			value = 50 # Basic 'self-love' bonus
			add = { 
				value = ai_greed
				multiply = 1.5
				min = 0
			}
		}
		AND = {
			$FACTION_CLAIMANT$  = root
			NOT = { has_trait = content } # Not opposed to acquiring more power/wealth
		}
	}

	# Legacy
	modifier = {
		desc = "FACTION_REASON_GLORY_LEGACY_4"
		add = -20
		$FACTION_TARGET$ = {
			exists = dynasty
			dynasty = {
				has_dynasty_perk = glory_legacy_4
			}
		}
	}

	# Friends & Lovers don't want to join
	modifier = {
		desc = "FACTION_REASON_TARGET_FRIEND_LOVER"
		add = -500
		OR = {
			has_secret_relation_lover = $FACTION_TARGET$
			has_relation_lover = $FACTION_TARGET$
			has_relation_soulmate = $FACTION_TARGET$ 
			has_relation_friend = $FACTION_TARGET$
			has_relation_best_friend = $FACTION_TARGET$
		}
	}
	# Friends & Lovers want to support their claimants!
	modifier = {
		desc = "FACTION_REASON_CLAIMANT_FRIEND_LOVER"
		add = 25
		OR = {
			has_secret_relation_lover = $FACTION_CLAIMANT$
			has_relation_lover = $FACTION_CLAIMANT$
			has_relation_soulmate = $FACTION_CLAIMANT$
			has_relation_friend = $FACTION_CLAIMANT$
			has_relation_best_friend = $FACTION_CLAIMANT$
		}
	}
	# Best Friends & Soulmates really want to support their claimants!
	modifier = {
		desc = "FACTION_REASON_CLAIMANT_SUPER_FRIEND_LOVER"
		add = 100
		OR = {
			has_relation_soulmate = $FACTION_CLAIMANT$
			has_relation_best_friend = $FACTION_CLAIMANT$
		}
	}

	# Liege is too young to rule
	modifier = {
		desc = "FACTION_REASON_TARGET_IS_CHILD"
		add = 25
		$FACTION_TARGET$ = { is_adult = no }
	}

	# Cultural reasons
	modifier = {
		desc = "FACTION_REASON_CULTURAL_REASONS"
		culture = {
			NOR = {
				this = $FACTION_TARGET$.culture
				cultural_acceptance = { target = $FACTION_TARGET$.culture value >= 90 } # Essentially the same culture
				has_cultural_parameter = doesnt_care_about_culture_faith_in_factions
			}
			OR = {
				this = $FACTION_CLAIMANT$.culture
				cultural_acceptance = { target = $FACTION_CLAIMANT$.culture value >= 90 } # Essentially the same culture
			}
		}
		add = {
			value = 50
			if = {
				limit = {
					culture = $FACTION_CLAIMANT$.culture
				}
				add = 50
			}
			if = {
				limit = {
					culture = {
						cultural_acceptance = { target = $FACTION_TARGET$.culture value <= 20 }
					}
				}
				add = 25
			}
			if = {
				limit = {
					culture = {
						cultural_acceptance = { target = $FACTION_TARGET$.culture value <= 35 }
					}
				}
				add = 15
			}
			if = {
				limit = {
					culture = {
						cultural_acceptance = { target = $FACTION_TARGET$.culture value <= 50 }
					}
				}
				add = 10
			}
			if = {
				limit = {
					culture = {
						cultural_acceptance = { target = $FACTION_TARGET$.culture value <= 70 }
					}
				}
				add = 5
			}
			if = {
				limit = {
					culture = {
						cultural_acceptance = { target = $FACTION_TARGET$.culture value <= 80 }
					}
				}
				add = 5
			}
			if = { # The liege knowing your language cuts this penalty in half
				limit = {
					$FACTION_TARGET$ = {
						knows_language_of_culture = prev.culture
					}
				}
				multiply = 0.5
			}
			if = { # Cultural reasons matter less in the HRE
				limit = {
					$FACTION_TITLE$ = {
						has_title_law = princely_elective_succession_law
					}
				}
				multiply = 0.25
			}
		}
	}

	modifier = {
		desc = "FACTION_REASON_CLAIMAINT_SAME_FAITH"
		add = 100
		NOT = { faith = $FACTION_TARGET$.faith }
		faith = $FACTION_CLAIMANT$.faith
		NOT = {
			culture = {
				has_cultural_parameter = doesnt_care_about_culture_faith_in_factions
			}
		}
	}

	modifier = {
		desc = "FACTION_REASON_CLAIMANT_FAITH_ASTRAY"
		add = -25
		NOT = { faith = $FACTION_CLAIMANT$.faith }
		faith = {
			faith_hostility_level = {
				target = $FACTION_CLAIMANT$.faith
				value = faith_astray_level
			}
		}
		NOT = {
			culture = {
				has_cultural_parameter = doesnt_care_about_culture_faith_in_factions
			}
		}
	}

	modifier = {
		desc = "FACTION_REASON_CLAIMANT_FAITH_HOSTILE"
		add = -250
		NOT = { faith = $FACTION_CLAIMANT$.faith }
		faith = {
			faith_hostility_level = {
				target = $FACTION_CLAIMANT$.faith
				value = faith_hostile_level
			}
		}
		NOT = {
			culture = {
				has_cultural_parameter = doesnt_care_about_culture_faith_in_factions
			}
		}
	}

	modifier = {
		desc = "FACTION_REASON_CLAIMANT_FAITH_EVIL"
		add = -1000
		NOT = { faith = $FACTION_CLAIMANT$.faith }
		faith = {
			faith_hostility_level = {
				target = $FACTION_CLAIMANT$.faith
				value = faith_evil_level
			}
		}
		NOT = {
			culture = {
				has_cultural_parameter = doesnt_care_about_culture_faith_in_factions
			}
		}
	}

	# Don't support claims against the liege's lower tier titles
	modifier = {
		desc = "FACTION_REASON_LOW_TIER_TARGET_TITLE"
		add = -500
		$FACTION_TITLE$.tier < $FACTION_TARGET$.primary_title.tier
		$FACTION_TITLE$.tier < tier_kingdom
	}

	# If I'm de jure of the Claimant, I want to support them
	modifier = {
		desc = "FACTION_REASON_CLAIMANT_IS_RIGHTFUL_LIEGE"
		add = 100
		is_rightful_liege_of_trigger = {
			VASSAL = root
			LIEGE = $FACTION_CLAIMANT$
		}
	}

	# When creating a Faction, primarily care about Claims on Titles de jure above my primary title
	modifier = {
		desc = "FACTION_REASON_TITLE_DEJURE_ABOVE"
		add = -100
		NOT = {
			$FACTION_TITLE$ = {
				is_de_jure_liege_or_above_target = root.primary_title
			}
		}
	}

	# If I'm not a de jure vassal of my liege, and my liege is independent, prefer to create an independence faction
	modifier = {
		desc = "FACTION_REASON_PREFER_INDEPENDENCE_FACTION"
		add = -200
		liege = { is_independent_ruler = yes }
		NOT = {
			is_rightful_liege_of_trigger = {
				VASSAL = root
				LIEGE = $FACTION_TARGET$
			}
		}
	}
	
	# If liege is Unpreferred heir, nudge towards claimant factions
	modifier = {
		desc = "FACTION_REASON_LIEGE_IS_UNPREFERRED_HEIR"
		add = 25
		has_opinion_modifier = {
			modifier = unpreferred_heir_opinion
			target = $FACTION_TARGET$
		}
	}
	
	# If liege is Preferred heir, nudge away from claimant factions
	modifier = {
		desc = "FACTION_REASON_LIEGE_IS_PREFERRED_HEIR"
		add = -25
		has_opinion_modifier = {
			modifier = preferred_heir_opinion
			target = $FACTION_TARGET$
		}
	}

	# All else being equal, the AI might support a claimant over their current liege just to get better feudal obligations.
	modifier = {
		desc = "FACTION_REASON_BETTER_CROWN_AUTHORITY"
		add = 10
		AND = {
			$FACTION_TARGET$ = {
				has_realm_law = crown_authority_1
			}
			$FACTION_CLAIMANT$ = {
				has_realm_law = crown_authority_0
			}
		}
	}
	modifier = {
		desc = "FACTION_REASON_BETTER_CROWN_AUTHORITY"
		add = 15
		AND = {
			$FACTION_TARGET$ = {
				has_realm_law = crown_authority_2
			}
			$FACTION_CLAIMANT$ = {
				OR = {
					has_realm_law = crown_authority_0
					has_realm_law = crown_authority_1
				}
			}
		}
	}
	modifier = {
		desc = "FACTION_REASON_BETTER_CROWN_AUTHORITY"
		add = 15
		AND = {
			$FACTION_TARGET$ = {
				has_realm_law = crown_authority_3
			}
			$FACTION_CLAIMANT$ = {
				OR = {
					has_realm_law = crown_authority_0
					has_realm_law = crown_authority_1
					has_realm_law = crown_authority_2
				}
			}
		}
	}

	# More likely to create a claimant faction against a Ruler below their CGLevel
	modifier = {
		desc = "FACTION_REASON_LOWER_COURT_GRANDEUR"
		add = 50
		$FACTION_TARGET$.court_grandeur_current_level < $FACTION_TARGET$.court_grandeur_minimum_expected_level
	}
	
	# Unity - House members are more likely to join and create claimant factions with low levels of unity
	modifier = { # Competitive unity level
		add = 20
		desc = "FACTION_REASON_unity_more_likely_claimant_factions"
		exists = root.house
		exists = $FACTION_TARGET$.house
		house = $FACTION_TARGET$.house
		house = {
			has_house_unity_parameter = unity_more_likely_claimant_factions
		}
	}
	modifier = { # Antagonistic unity level
		add = 40
		desc = "FACTION_REASON_unity_significantly_more_likely_claimant_factions"
		exists = root.house
		exists = $FACTION_TARGET$.house
		house = $FACTION_TARGET$.house
		house = {
			has_house_unity_parameter = unity_significantly_more_likely_claimant_factions
		}
	}

	#modifier = { # Byzantium has extra trouble with Unpreferred Heirs
	#	desc = "FACTION_REASON_BYZANTINE"
	#	factor = 1.2
	# 	culture = {
	#		has_cultural_parameter = byzantine_faction_differences
	#	}
	# 	$FACTION_TARGET$ = {
	#		has_title = title:e_byzantium
	#	}
	#	has_opinion_modifier = {
	#		modifier = unpreferred_heir_opinion
	#		target = $FACTION_TARGET$
	#	}
	#}
	
	modifier = {
		desc = "FACTION_REASON_PERSIAN_STRUGGLE"
		factor = 1.2
		any_character_struggle = {
			is_struggle_type = persian_struggle
		}
	}
}

struggle_faction_modifiers = {
	# Struggle Modifiers.
	## Weight up in general sometimes.
	modifier = {
		desc = FACTION_FP3_STRUGGLE_FRICTION
		has_trait = fp3_struggle_detractor
		scope:faction = {
			# Don't weight up dissolution factions unduly.
			NOT = { faction_is_type = nation_fracturing_faction }
			# Targeting the caliph uses different logic.
			faction_target = { fp3_struggle_scoped_is_the_arabian_caliph_trigger = no }
		}
		add = {
			value = 25
			# Weight up independence factions a little more.
			if = {
				limit = {
					scope:faction = { faction_is_type = independence_faction }
				}
				add = 25
			}
		}
	}
	## Weight up further against specific targets.
	modifier = {
		desc = FACTION_FP3_STRUGGLE_FRICTION_CALIPHAL
		has_trait = fp3_struggle_detractor
		scope:faction = {
			# Don't weight up dissolution factions unduly.
			NOT = { faction_is_type = nation_fracturing_faction }
			# Targeting the caliph uses different logic.
			faction_target = { fp3_struggle_scoped_is_the_arabian_caliph_trigger = yes }
		}
		add = {
			value = 35
			# Weight up independence factions a little more.
			if = {
				limit = {
					scope:faction = { faction_is_type = independence_faction }
				}
				add = 35
			}
		}
	}
}
